{1:F01CBLUCH22AXXX0000000000}{2:I94000286383XXXXN}{4:
:20:1130000128730001
:25:246020-06
:28C:00032/001
:60F:C201127EUR76714,44
:61:2011301130DR18,92NMSCCONTEGGIO PER SE//221107872041
30.11.2020 SP3845770328           
:86:30.11.2020 SP3845770328 
SPESE SUPPLEMENTARI 20,00 CHF
CAMBIO 0,945868
:62F:C201130EUR76695,52
:64:C201130EUR76695,52
-}
{1:F01CBLUCH22AXXX0000000000}{2:I94000286383XXXXN}{4:
:20:1130000128980002
:25:248371-02
:28C:00029/001
:60F:C201127USD7405,05
:61:2011301130DD142,50NMSCCOMM. SPESE GARA//221107864991
:86:NUMERO 4794 
DAL 30-11-2020 
AL 15-02-2021 
:62F:C201130USD7262,55
:64:C201130USD7262,55
-}
{1:F01CBLUCH22AXXX0000000000}{2:I94000286383XXXXN}{4:
:20:1130000129690003
:25:248371-06
:28C:00128/001
:60F:C201127EUR19365,20
:61:2012021130CR110224,40NSECCONTEGGIO TITOLI//221107800111
..110000 GERMANY 0  19/21         
:86:ISIN  DE0001104750 
DEPOSITO 248371/03
VOSTRO ORDINE DEL 30.11.2020
GERMANY 0  2019-12.03.21 
NOMINALE 110.000,00 EUR
PIAZZA DI BORSA C.EUROMERCATO
:62F:C201130EUR129589,60
:64:C201130EUR158585,16
:65:C201201EUR19365,20
:65:C201202EUR129589,60
-}
{1:F01CBLUCH22AXXX0000000000}{2:I94000286383XXXXN}{4:
:20:1130000129740004
:25:248375-02
:28C:00031/001
:60F:C201127USD6702,14
:61:2011301130DD142,50NMSCCOMM. SPESE GARA//221107865001
:86:NUMERO 4795 
DAL 30-11-2020 
AL 15-02-2021 
:62F:C201130USD6559,64
:64:C201130USD6559,64
-}
{1:F01CBLUCH22AXXX0000000000}{2:I94000286383XXXXN}{4:
:20:1130000129920005
:25:248375-06
:28C:00127/001
:60F:C201127EUR49095,83
:61:2011301130DR18,92NMSCCONTEGGIO PER SE//221107872291
30.11.2020 SP8879370317           
:86:30.11.2020 SP8879370317 
SPESE SUPPLEMENTARI 20,00 CHF
CAMBIO 0,945868
:61:2012021130CR56114,24NSECCONTEGGIO TITOLI//221107800121
...56000 GERMANY 0  19/21         
:86:ISIN  DE0001104750 
DEPOSITO 248375/03
VOSTRO ORDINE DEL 30.11.2020
GERMANY 0  2019-12.03.21 
NOMINALE 56.000,00 EUR
PIAZZA DI BORSA C.EUROMERCATO
:62F:C201130EUR105191,15
:64:C201130EUR140229,93
:65:C201201EUR49076,91
:65:C201202EUR105191,15
-}
{1:F01CBLUCH22AXXX0000000000}{2:I94000286383XXXXN}{4:
:20:1130000130000006
:25:248379-02
:28C:00029/001
:60F:C201127USD9679,30
:61:2011301130DD142,50NMSCCOMM. SPESE GARA//221107865011
:86:NUMERO 4796 
DAL 30-11-2020 
AL 15-02-2021 
:62F:C201130USD9536,80
:64:C201130USD9536,80
-}
{1:F01CBLUCH22AXXX0000000000}{2:I94000286383XXXXN}{4:
:20:1130000130150007
:25:248379-06
:28C:00123/001
:60F:C201127EUR6017,58
:61:2012021130CR156318,24NSECCONTEGGIO TITOLI//221107800131
..156000 GERMANY 0  19/21         
:86:ISIN  DE0001104750 
DEPOSITO 248379/03
VOSTRO ORDINE DEL 30.11.2020
GERMANY 0  2019-12.03.21 
NOMINALE 156.000,00 EUR
PIAZZA DI BORSA C.EUROMERCATO
:62F:C201130EUR162335,82
:64:C201130EUR163806,74
:65:C201201EUR6017,58
:65:C201202EUR162335,82
-}
{1:F01CBLUCH22AXXX0000000000}{2:I94000286383XXXXN}{4:
:20:1130000130230008
:25:248783-02
:28C:00012/001
:60F:C201127USD38608,90
:61:2011301130CD281,25NSECCONTEGGIO TITOLI//221107638969
...30000 KFW 1,875  15/20         
:86:ISIN  US500769GU24 
DEPOSITO 248783/03
KRED WIEDERAUFBAU 1,875  BONDS 
2015-30.11.2020 GLOBAL 
NOMINALE 30.000,00 USD
:61:2011301130CD30000,NSECCONTEGGIO TITOLI//221107639319
...30000 KFW 1,875  15/20         
:86:ISIN  US500769GU24 
DEPOSITO 248783/03
KRED WIEDERAUFBAU 1,875  BONDS 
2015-30.11.2020 GLOBAL 
NOMINALE 30.000,00 USD
:62F:C201130USD68890,15
:64:C201130USD68890,15
-}
{1:F01CBLUCH22AXXX0000000000}{2:I94000286383XXXXN}{4:
:20:1130000130740009
:25:248791-06
:28C:00084/001
:60F:D201127EUR120,67
:61:2011301130CR285,NSECCONTEGGIO TITOLI//2211076397284
...12000 CORNER 9,5 MBRC21EQ      
:86:ISIN  CH0500535197 
DEPOSITO 248791/03
CORNER BANK 9,5  M.BARR.REV.CO 
NV.2020-02.03.21 ON EQUITIES 
NOMINALE 12.000,00 EUR
:62F:C201130EUR164,33
:64:C201130EUR164,33
-}
{1:F01CBLUCH22AXXX0000000000}{2:I94000286383XXXXN}{4:
:20:1130000130850010
:25:248800-06
:28C:00085/001
:60F:D201127EUR708,81
:61:2011301130CR213,75NSECCONTEGGIO TITOLI//2211076397285
....9000 CORNER 9,5 MBRC21EQ      
:86:ISIN  CH0500535197 
DEPOSITO 248800/03
CORNER BANK 9,5  M.BARR.REV.CO 
NV.2020-02.03.21 ON EQUITIES 
NOMINALE 9.000,00 EUR
:62F:D201130EUR495,06
:64:D201130EUR495,06
-}
{1:F01CBLUCH22AXXX0000000000}{2:I94000286383XXXXN}{4:
:20:1130000130920011
:25:249063-02
:28C:00023/001
:60F:C201127USD2794,54
:61:2012021130DD107926,60NSECCONTEGGIO TITOLI//221107780822
.....500 BOEING CO                
:86:ISIN  US0970231058 
DEPOSITO 249063/03
VOSTRO ORDINE DEL 30.11.2020
BOEING CO 
QUANTITA' 500,00
PIAZZA DI BORSA NYSE
:62F:D201130USD105132,06
:64:C201130USD2794,54
:65:D201202USD105132,06
-}
{1:F01CBLUCH22AXXX0000000000}{2:I94000286383XXXXN}{4:
:20:1130000131540012
:25:249063-06
:28C:00163/001
:60F:C201127EUR17484,85
:61:2011301130CR250,76NTRFRIMBORSO MARGINE//221107736211
:86:REFUND MARGIN 
EUREX 
:62F:C201130EUR17735,61
:64:C201130EUR17735,61
-}
{1:F01CBLUCH22AXXX0000000000}{2:I94000286383XXXXN}{4:
:20:1130000131550013
:25:249063-30
:28C:00146/001
:60F:C201127EUR13790,08
:61:2011301130DR250,76NTRFRIMBORSO MARGINE//221107736212
:86:REFUND MARGIN 
EUREX 
:62F:C201130EUR13539,32
:64:C201130EUR13539,32
-}
{1:F01CBLUCH22AXXX0000000000}{2:I94000286383XXXXN}{4:
:20:1130000131940014
:25:251605-01
:28C:00056/001
:60F:D201127CHF3946,60
:61:2011301130CF4500,NFEXOPERAZIONE CAMBI//221107629031
1,079 UNIONE FID. FWM00200        
:86:1,079 UNIONE FID. FWM00200 
:62F:C201130CHF553,40
:64:C201130CHF553,40
-}
{1:F01CBLUCH22AXXX0000000000}{2:I94000286383XXXXN}{4:
:20:1130000132160015
:25:251605-06
:28C:00038/001
:60F:C201127EUR228608,18
:61:2011301130DR4170,53NFEXOPERAZIONE CAMBI//221107629032
1,079 UNIONE FID. FWM00200        
:86:1,079 UNIONE FID. FWM00200 
:62F:C201130EUR224437,65
:64:C201130EUR224437,65
-}
{1:F01CBLUCH22AXXX0000000000}{2:I94000286383XXXXN}{4:
:20:1130000133390016
:25:252391-02
:28C:00165/001
:60F:D201127USD5062352,28
:61:2011301130CD13350389,38NTRFRIMBORSO FIDUCIA//221107588482
:86:ACCREDITO SOTTO RISERVA DELL' 
ENTRATA DELL'IMPORTO 
:61:2011301130DD7535000,NTRFPIAZZAMENTO FIDU//221107589401
NO. 55                            
:86:NO. 55 
:61:2012011130DD742165,14NSECCONTEGGIO TITOLI//221107411851
....6493 MODERNA INC REG SHS      
:86:ISIN  US60770K1079 
DEPOSITO 252391/03
VOSTRO ORDINE DEL 27.11.2020
MODERNA INC REG SHS 
QUANTITA' 6.493,00
PIAZZA DI BORSA NASDAQ
:61:2012021130CD1199591,74NSECCONTEGGIO TITOLI//221107753122
...10000 NOVAVAX INC SHS          
:86:ISIN  US6700024010 
DEPOSITO 252391/03
VOSTRO ORDINE DEL 30.11.2020
NOVAVAX INC REGISTERED SHS 
QUANTITA' 10.000,00
PIAZZA DI BORSA NASDAQ
:61:2012021130DD473716,96NSECCONTEGGIO TITOLI//221107653132
....3507 MODERNA INC REG SHS      
:86:ISIN  US60770K1079 
DEPOSITO 252391/03
VOSTRO ORDINE DEL 30.11.2020
MODERNA INC REG SHS 
QUANTITA' 3.507,00
PIAZZA DI BORSA NASDAQ
:62F:C201130USD736746,74
:64:C201130USD753037,10
:65:C201201USD10871,96
:65:C201202USD736746,74
-}
{1:F01CBLUCH22AXXX0000000000}{2:I94000286383XXXXN}{4:
:20:1130000133400017
:25:252391-54
:28C:00002/001
:60F:C201127USD13350000,
:61:2011301130CD389,38NTRFINTERESSI PIAZZA//221107588471
:86:PRESSO  SOCIETE GENERALE 
CONTRATTO 02790
DEL 23.11.2020
IMPORTO IN DIVISA 13.350.000,00
TASSO D'INTERESSE 0,1500000000
SCADENZA 30.11.2020
:61:2011301130DD13350389,38NTRFRIMBORSO FIDUCIA//221107588481
:86:PRESSO  SOCIETE GENERALE 
CONTRATTO 02790
DEL 23.11.2020
:62F:C201130USD0,
:64:C201130USD0,
-}
{1:F01CBLUCH22AXXX0000000000}{2:I94000286383XXXXN}{4:
:20:1130000133420018
:25:252391-55
:28C:00001/001
:60F:C201127USD0,
:61:2011301130CD7535000,NTRFPIAZZAMENTO FIDU//221107589402
NO. 02                            
:86:NO. 02 
PRESSO  SOCIETE GENERALE 
VOSTRO ORDINE DEL 30.11.2020
CONTRATTO 01762
DEL 30.11.2020
IMPORTO IN DIVISA 7.535.000,00
:62F:C201130USD7535000,
:64:C201130USD0,
-}
{1:F01CBLUCH22AXXX0000000000}{2:I94000286383XXXXN}{4:
:20:1130000133930019
:25:254503-06
:28C:00080/001
:60F:D201127EUR92332,76
:61:2012011130CR159096,57NSECCONTEGGIO TITOLI//221107507081
...10418 PIMCO GL.INV.EME.EUR     
:86:ISIN  IE00B607SM09 
DEPOSITO 254503/03
VOSTRO ORDINE DEL 26.11.2020
PIMCO FDS GLOBAL INVES.EMERGIN 
G MKTS CORP.BOND FD CL.HGD EUR 
QUANTITA' 10.418,898
:62F:C201130EUR66763,81
:64:D201130EUR92332,76
:65:C201201EUR66763,81
-}
{1:F01CBLUCH22AXXX0000000000}{2:I94000286383XXXXN}{4:
:20:1130000134260020
:25:255200-06
:28C:00055/001
:60F:C201127EUR9350,35
:61:2011301130DR37,84NMSCCONTEGGIO PER SE//221107872991
30.11.2020 SP5903270314           
:86:30.11.2020 SP5903270314 
SPESE SUPPLEMENTARI 40,00 CHF
CAMBIO 0,945868
:62F:C201130EUR9312,51
:64:C201130EUR9312,51
-}
{1:F01CBLUCH22AXXX0000000000}{2:I94000286383XXXXN}{4:
:20:1130000135040021
:25:257274-06
:28C:00117/001
:60F:C201127EUR86926,07
:61:2011301130DR18,92NMSCCONTEGGIO PER SE//221107873321
30.11.2020 SP7206070309           
:86:30.11.2020 SP7206070309 
SPESE SUPPLEMENTARI 20,00 CHF
CAMBIO 0,945868
:62F:C201130EUR86907,15
:64:C201130EUR16167,55
:65:C201201EUR86907,15
-}
{1:F01CBLUCH22AXXX0000000000}{2:I94000286383XXXXN}{4:
:20:1130000135330022
:25:258294-06
:28C:00040/001
:60F:C201127EUR378604,71
:61:2012011130DR31074,19NSECCONTEGGIO TITOLI//221107507091
.....125 ALLIANZ(L)ART.INT.AT     
:86:ISIN  LU1548497772 
DEPOSITO 258294/03
VOSTRO ORDINE DEL 26.11.2020
ALLIANZ GL.INV.FD SICAV - ARTI 
FICIAL INTELLIGENCE SHS AT 
QUANTITA' 125,00
:62F:C201130EUR347530,52
:64:C201130EUR378604,71
:65:C201201EUR347530,52
-}
{1:F01CBLUCH22AXXX0000000000}{2:I94000286383XXXXN}{4:
:20:1130000135830023
:25:258673-06
:28C:00077/001
:60F:C201127EUR84756,55
:61:2011301130CR831,25NSECCONTEGGIO TITOLI//2211076397212
...35000 CORNER 9,5 MBRC21EQ      
:86:ISIN  CH0500535197 
DEPOSITO 258673/03
CORNER BANK 9,5  M.BARR.REV.CO 
NV.2020-02.03.21 ON EQUITIES 
NOMINALE 35.000,00 EUR
:62F:C201130EUR85587,80
:64:C201130EUR85587,80
-}
{1:F01CBLUCH22AXXX0000000000}{2:I94000286383XXXXN}{4:
:20:1130000136800024
:25:260925-02
:28C:00094/001
:60F:D201127USD2781,44
:61:2011301130CD3500,NFEXOPERAZIONE CAMBI//221107628191
1,331 UNIONE FID.FWM00200B        
:86:1,331 UNIONE FID.FWM00200B 
:62F:C201130USD718,56
:64:C201130USD718,56
-}
{1:F01CBLUCH22AXXX0000000000}{2:I94000286383XXXXN}{4:
:20:1130000136900025
:25:260925-03
:28C:00030/001
:60F:C201127GBP3286,21
:61:2011301130DP2629,60NFEXOPERAZIONE CAMBI//221107628192
1,331 UNIONE FID.FWM00200B        
:86:1,331 UNIONE FID.FWM00200B 
:62F:C201130GBP656,61
:64:C201130GBP656,61
-}
{1:F01CBLUCH22AXXX0000000000}{2:I94000286383XXXXN}{4:
:20:1130000137010026
:25:260938-02
:28C:00092/001
:60F:D201127USD6295,71
:61:2011301130CD7000,NFEXOPERAZIONE CAMBI//221107627951
1,331 UNIONE FID.FWM00201B        
:86:1,331 UNIONE FID.FWM00201B 
:62F:C201130USD704,29
:64:C201130USD704,29
-}
{1:F01CBLUCH22AXXX0000000000}{2:I94000286383XXXXN}{4:
:20:1130000137050027
:25:260938-03
:28C:00028/001
:60F:C201127GBP7275,37
:61:2011301130DP5259,20NFEXOPERAZIONE CAMBI//221107627952
1,331 UNIONE FID.FWM00201B        
:86:1,331 UNIONE FID.FWM00201B 
:62F:C201130GBP2016,17
:64:C201130GBP2016,17
-}
{1:F01CBLUCH22AXXX0000000000}{2:I94000286383XXXXN}{4:
:20:1130000137200028
:25:269540-02
:28C:00012/001
:60F:C201127USD512,50
:61:2012021130CD5811,55NSECCONTEGGIO TITOLI//221107781051
.......5 UBS AG LDN PERLES 23     
:86:ISIN  CH0555602306 
DEPOSITO 269540/03
VOSTRO ORDINE DEL 30.11.2020
UBS AG LONDON PERLESE CERTIFIC 
ATE 2020-17.07.2023 EQ 
QUANTITA' 5,00
:62F:C201130USD6324,05
:64:C201130USD512,50
:65:C201202USD6324,05
-}
{1:F01CBLUCH22AXXX0000000000}{2:I94000286383XXXXN}{4:
:20:1130000137460029
:25:269553-02
:28C:00043/001
:60F:C201127USD2034,09
:61:2012021130CD5811,55NSECCONTEGGIO TITOLI//221107781041
.......5 UBS AG LDN PERLES 23     
:86:ISIN  CH0555602306 
DEPOSITO 269553/03
VOSTRO ORDINE DEL 30.11.2020
UBS AG LONDON PERLESE CERTIFIC 
ATE 2020-17.07.2023 EQ 
QUANTITA' 5,00
:62F:C201130USD7845,64
:64:C201130USD2034,09
:65:C201202USD7845,64
-}
{1:F01CBLUCH22AXXX0000000000}{2:I94000286383XXXXN}{4:
:20:1130000137550030
:25:271584-02
:28C:00042/001
:60F:C201127USD1098,68
:61:2012021130CD5811,55NSECCONTEGGIO TITOLI//221107781031
.......5 UBS AG LDN PERLES 23     
:86:ISIN  CH0555602306 
DEPOSITO 271584/03
VOSTRO ORDINE DEL 30.11.2020
UBS AG LONDON PERLESE CERTIFIC 
ATE 2020-17.07.2023 EQ 
QUANTITA' 5,00
:61:2012021130CD20141,82NSECCONTEGGIO TITOLI//221107785752
...20000 PEMEX 3,5  13/23         
:86:ISIN  US71654QBG64 
DEPOSITO 271584/03
VOSTRO ORDINE DEL 30.11.2020
PEMEX 3,5  NOTES 2013-30.1.202 
3 GTD GLOBAL 
NOMINALE 20.000,00 USD
:61:2012021130DD17338,06NSECCONTEGGIO TITOLI//221107785742
...20000 PEMEX 6,35  48           
:86:ISIN  US71654QCL41 
DEPOSITO 271584/03
VOSTRO ORDINE DEL 30.11.2020
PEMEX 6,35  MEDIUM TERM NTS 20 
18-12.02.2048 GTD -C- 
NOMINALE 20.000,00 USD
:62F:C201130USD9713,99
:64:C201130USD1098,68
:65:C201202USD9713,99
-}
{1:F01CBLUCH22AXXX0000000000}{2:I94000286383XXXXN}{4:
:20:1130000138500031
:25:276047-02
:28C:00086/001
:60F:D201127USD2094,16
:61:2011271130CD246,33NSECCONTEGGIO TITOLI//2211077210024
.....644 STARBUCKS CORP SHS       
:86:ISIN  US8552441094 
DEPOSITO 276047/03
STARBUCKS CORP SHS 
QUANTITA' 644,00
:62F:D201130USD1847,83
:64:D201130USD1847,83
-}
{1:F01CBLUCH22AXXX0000000000}{2:I94000286383XXXXN}{4:
:20:1130000140740032
:25:283080-02
:28C:00136/001
:60F:C201127USD543,23
:61:2011271130CD41,31NSECCONTEGGIO TITOLI//2211077210070
.....108 STARBUCKS CORP SHS       
:86:ISIN  US8552441094 
DEPOSITO 283080/03
STARBUCKS CORP SHS 
QUANTITA' 108,00
:62F:C201130USD584,54
:64:C201130USD584,54
-}
{1:F01CBLUCH22AXXX0000000000}{2:I94000286383XXXXN}{4:
:20:1130000140900033
:25:283119-02
:28C:00136/001
:60F:C201127USD297,45
:61:2011271130CD76,50NSECCONTEGGIO TITOLI//2211077210026
.....200 STARBUCKS CORP SHS       
:86:ISIN  US8552441094 
DEPOSITO 283119/03
STARBUCKS CORP SHS 
QUANTITA' 200,00
:62F:C201130USD373,95
:64:C201130USD373,95
-}
{1:F01CBLUCH22AXXX0000000000}{2:I94000286383XXXXN}{4:
:20:1130000141420034
:25:288758-06
:28C:00100/001
:60F:C201127EUR10491,11
:61:2011201130CR93,96NSECCONTEGGIO TITOLI//2211077806518
.....580 FERRVL RTS 18.11.20      
:86:ISIN  ES06189009G9 
DEPOSITO 288758/03
FERROVIAL RIGHTS 2020-18.11.20 
FOR SHS 
QUANTITA' 580,00
:61:2011301130CR356,25NSECCONTEGGIO TITOLI//2211076397226
...15000 CORNER 9,5 MBRC21EQ      
:86:ISIN  CH0500535197 
DEPOSITO 288758/03
CORNER BANK 9,5  M.BARR.REV.CO 
NV.2020-02.03.21 ON EQUITIES 
NOMINALE 15.000,00 EUR
:62F:C201130EUR10941,32
:64:C201130EUR10941,32
-}
{1:F01CBLUCH22AXXX0000000000}{2:I94000286383XXXXN}{4:
:20:1130000141900035
:25:293221-06
:28C:00026/001
:60F:C201127EUR113,26
:61:2011301130CR27,16NSECCONTEGGIO TITOLI//221107721392
.....200 TOHOKU ELECTRIC          
:86:ISIN  JP3605400005 
DEPOSITO 293221/03
TOHOKU ELECTRIC POWER CO INC S 
HS 
QUANTITA' 200,00
:61:2011301130CR33,93NSECCONTEGGIO TITOLI//221107639412
.....200 CHUBU ELECTRIC POWER     
:86:ISIN  JP3526600006 
DEPOSITO 293221/03
CHUBU ELECTRIC POWER CO INC 
QUANTITA' 200,00
:62F:C201130EUR174,35
:64:C201130EUR174,35
-}
{1:F01CBLUCH22AXXX0000000000}{2:I94000286383XXXXN}{4:
:20:1130000142050036
:25:315733-02
:28C:00064/001
:60F:D201127USD1745545,33
:61:2011301130CD2890120,42NTRFRIMBORSO FIDUCIA//221107590892
:86:ACCREDITO SOTTO RISERVA DELL' 
ENTRATA DELL'IMPORTO 
:61:2011301130DD1140000,NTRFPIAZZAMENTO FIDU//221107591221
NO. 29                            
:86:NO. 29 
:62F:C201130USD4575,09
:64:C201130USD4575,09
-}
{1:F01CBLUCH22AXXX0000000000}{2:I94000286383XXXXN}{4:
:20:1130000142060037
:25:315733-28
:28C:00002/001
:60F:C201127USD2890000,
:61:2011301130CD120,42NTRFINTERESSI PIAZZA//221107590881
:86:PRESSO  SOCIETE GENERALE 
CONTRATTO 02944
DEL 20.11.2020
IMPORTO IN DIVISA 2.890.000,00
TASSO D'INTERESSE 0,1500000000
SCADENZA 30.11.2020
:61:2011301130DD2890120,42NTRFRIMBORSO FIDUCIA//221107590891
:86:PRESSO  SOCIETE GENERALE 
CONTRATTO 02944
DEL 20.11.2020
:62F:C201130USD0,
:64:C201130USD0,
-}
{1:F01CBLUCH22AXXX0000000000}{2:I94000286383XXXXN}{4:
:20:1130000142060038
:25:315733-29
:28C:00001/001
:60F:C201127USD0,
:61:2011301130CD1140000,NTRFPIAZZAMENTO FIDU//221107591222
NO. 02                            
:86:NO. 02 
PRESSO  SOCIETE GENERALE 
VOSTRO ORDINE DEL 30.11.2020
CONTRATTO 01775
DEL 30.11.2020
IMPORTO IN DIVISA 1.140.000,00
:62F:C201130USD1140000,
:64:C201130USD0,
-}
{1:F01CBLUCH22AXXX0000000000}{2:I94000286383XXXXN}{4:
:20:1130000142460039
:25:317913-02
:28C:00119/001
:60F:C201127USD0,
:61:2011301130CD187,50NTRFVARIAZIONE MARGI//221107736891
:86:VARIATION MARGIN 
COFFEE MAR21 FUT NYBOT 
:61:2011301130CD8606,25NTRFCHIUSURA OPERAZI//221107738461
:86:5 COFFEE MAR21 FUT 
EXPIRY DATE 03.2021 NYBOT 
:62F:C201130USD8793,75
:64:C201130USD8793,75
-}
{1:F01CBLUCH22AXXX0000000000}{2:I94000286383XXXXN}{4:
:20:1130000142550040
:25:318776-02
:28C:00042/001
:60F:C201127USD5718,59
:61:2011271130CD0,51NSECCONTEGGIO TITOLI//2211077210512
.......5 WABTEC REG SHS           
:86:ISIN  US9297401088 
DEPOSITO 318776/03
WABTEC REGISTERED SHS 
QUANTITA' 5,00
:62F:C201130USD5719,10
:64:C201130USD5719,10
-}
{1:F01CBLUCH22AXXX0000000000}{2:I94000286383XXXXN}{4:
:20:1130000142880041
:25:329057-06
:28C:00125/001
:60F:C201127EUR134861,57
:61:2011301130DR18,92NMSCCONTEGGIO PER SE//221107887411
30.11.2020 SP6845570322           
:86:30.11.2020 SP6845570322 
SPESE SUPPLEMENTARI 20,00 CHF
CAMBIO 0,945868
:62F:C201130EUR134842,65
:64:C201130EUR134842,65
-}
{1:F01CBLUCH22AXXX0000000000}{2:I94000286383XXXXN}{4:
:20:1130000142960042
:25:330260-06
:28C:00034/001
:60F:C201127EUR1613211,69
:61:2011201130CR9,07NSECCONTEGGIO TITOLI//2211077806522
......56 FERRVL RTS 18.11.20      
:86:ISIN  ES06189009G9 
DEPOSITO 330260/03
FERROVIAL RIGHTS 2020-18.11.20 
FOR SHS 
QUANTITA' 56,00
:62F:C201130EUR1613220,76
:64:C201130EUR1613220,76
-}
{1:F01CBLUCH22AXXX0000000000}{2:I94000286383XXXXN}{4:
:20:1130000143190043
:25:347655-06
:28C:00043/001
:60F:C201127EUR46178,44
:61:2011301130DR18,92NMSCCONTEGGIO PER SE//221107892661
30.11.2020 SP8079970331           
:86:30.11.2020 SP8079970331 
SPESE SUPPLEMENTARI 20,00 CHF
CAMBIO 0,945868
:62F:C201130EUR46159,52
:64:C201130EUR46159,52
-}
{1:F01CBLUCH22AXXX0000000000}{2:I94000286383XXXXN}{4:
:20:1130000143570044
:25:354978-01
:28C:00079/001
:60F:C201127CHF2486,41
:61:2011301130CF488,25NSECCONTEGGIO TITOLI//2211076396747
...21000 CORNER 9,3 MBRC21EQ      
:86:ISIN  CH0500535189 
DEPOSITO 354978/03
CORNER BANK 9,3  M.BARR.REV.CO 
NV.2020-02.03.21 ON EQUITIES 
NOMINALE 21.000,00 CHF
:62F:C201130CHF2974,66
:64:C201130CHF2974,66
-}
{1:F01CBLUCH22AXXX0000000000}{2:I94000286383XXXXN}{4:
:20:1130000143900045
:25:378514-06
:28C:00106/001
:60F:C201127EUR120331,65
:61:2011201130CR2,43NSECCONTEGGIO TITOLI//2211077806511
......15 FERRVL RTS 18.11.20      
:86:ISIN  ES06189009G9 
DEPOSITO 378514/03
FERROVIAL RIGHTS 2020-18.11.20 
FOR SHS 
QUANTITA' 15,00
:61:2011301130CR1543,75NSECCONTEGGIO TITOLI//2211076397272
...65000 CORNER 9,5 MBRC21EQ      
:86:ISIN  CH0500535197 
DEPOSITO 378514/03
CORNER BANK 9,5  M.BARR.REV.CO 
NV.2020-02.03.21 ON EQUITIES 
NOMINALE 65.000,00 EUR
:62F:C201130EUR121877,83
:64:C201130EUR121877,83
-}
